…
<iframe src="https://jjallaire.shinyapps.io/shiny-kmeans/?showcase=0" width="100%" height="600px" style="border: none;"></iframe>

### Exemple simple

Afin de comparer la classification par k-moyennes à celle par CAH, nous reprendrons ici le même jeu de données `zooplankton`.


```r
zoo <- read("zooplankton", package = "data.io")
zoo
```

```
# # A tibble: 1,262 x 20
#      ecd  area perimeter feret major minor  mean  mode   min   max std_dev
#    <dbl> <dbl>     <dbl> <dbl> <dbl> <dbl> <dbl> <dbl> <dbl> <dbl>   <dbl>
#  1 0.770 0.465      4.45 1.32  1.16  0.509 0.363 0.036 0.004 0.908   0.231
#  2 0.700 0.385      2.32 0.728 0.713 0.688 0.361 0.492 0.024 0.676   0.183
#  3 0.815 0.521      4.15 1.33  1.11  0.598 0.308 0.032 0.008 0.696   0.204
#  4 0.785 0.484      4.44 1.78  1.56  0.394 0.332 0.036 0.004 0.728   0.218
#  5 0.361 0.103      1.71 0.739 0.694 0.188 0.153 0.016 0.008 0.452   0.110
#  6 0.832 0.544      5.27 1.66  1.36  0.511 0.371 0.02  0.004 0.844   0.268
#  7 1.23  1.20      15.7  3.92  1.37  1.11  0.217 0.012 0.004 0.784   0.214
#  8 0.620 0.302      3.98 1.19  1.04  0.370 0.316 0.012 0.004 0.756   0.246
#  9 1.19  1.12      15.3  3.85  1.34  1.06  0.176 0.012 0.004 0.728   0.172
# 10 1.04  0.856      7.60 1.89  1.66  0.656 0.404 0.044 0.004 0.88    0.264
# # … with 1,252 more rows, and 9 more variables: range <dbl>, size <dbl>,
# #   aspect <dbl>, elongation <dbl>, compactness <dbl>, transparency <dbl>,
# #   circularity <dbl>, density <dbl>, class <fct>
```
…
Partant d'une matrice de distance, élaborée à l'aide de la métrique de votre choix (euclidienne, Manhattan, Bray-Curtis, Canberra, ...) la projection est calculée à l'aide de la fonction `cmdscale()`. Appliqué aux données `iris`, cela donne\ :

Considérons un relevé de couverture végétale en 24 stations concernant 44 plantes répertoriées sur le site de l'étude, par exemple, `Callvulg` est *[Calluna vulgaris](https://www.tela-botanica.org/bdtfx-nn-12262-synthese)*, `Empenigr` est *[Empetrum nigrum](https://www.tela-botanica.org/bdtfx-nn-23935-synthese)*, etc. Les valeurs sont les couvertures végétales observées pour chaque plante sur le site, expérimées en pourcents. La première colonne nommée `rownames` contient les identifiants des stations. Nous allons les enlever du tableau après les avoir transférés dans la variable `stations`.


```r
veg <- read("varespec", package = "vegan")
veg
```

```
# # A tibble: 24 x 45
#    rownames Callvulg Empenigr Rhodtome Vaccmyrt Vaccviti Pinusylv Descflex
#    <chr>       <dbl>    <dbl>    <dbl>    <dbl>    <dbl>    <dbl>    <dbl>
#  1 18           0.55    11.1      0        0       17.8      0.07     0   
#  2 15           0.67     0.17     0        0.35    12.1      0.12     0   
#  3 24           0.1      1.55     0        0       13.5      0.25     0   
#  4 27           0       15.1      2.42     5.92    16.0      0        3.7 
#  5 23           0       12.7      0        0       23.7      0.03     0   
#  6 19           0        8.92     0        2.42    10.3      0.12     0.02
#  7 22           4.73     5.12     1.55     6.05    12.4      0.1      0.78
#  8 16           4.47     7.33     0        2.15     4.33     0.1      0   
#  9 28           0        1.63     0.35    18.3      7.13     0.05     0.4 
# 10 13          24.1      1.9      0.07     0.22     5.3      0.12     0   
# # … with 14 more rows, and 37 more variables: Betupube <dbl>,
# #   Vacculig <dbl>, Diphcomp <dbl>, Dicrsp <dbl>, Dicrfusc <dbl>,
# #   Dicrpoly <dbl>, Hylosple <dbl>, Pleuschr <dbl>, Polypili <dbl>,
# #   Polyjuni <dbl>, Polycomm <dbl>, Pohlnuta <dbl>, Ptilcili <dbl>,
# #   Barbhatc <dbl>, Cladarbu <dbl>, Cladrang <dbl>, Cladstel <dbl>,
# #   Cladunci <dbl>, Cladcocc <dbl>, Cladcorn <dbl>, Cladgrac <dbl>,
# #   Cladfimb <dbl>, Cladcris <dbl>, Cladchlo <dbl>, Cladbotr <dbl>,
# #   Cladamau <dbl>, Cladsp <dbl>, Cetreric <dbl>, Cetrisla <dbl>,
# #   Flavniva <dbl>, Nepharct <dbl>, Stersp <dbl>, Peltapht <dbl>,
…
