…
### Indiens diabétiques

Les indiens Pimas sont des amérindiens originaires du nord du Mexique qui sont connus pour compter le plus haut pourcentage d'obèses et de diabétiques de toutes les éthnies. Ils ont fait l'objet de plusieurs études scientifiques d'autant plus que les Pimas en Arizona développent principalement cette obésité et ce diabète, alors que les Pimas mexicains les ont plus rarement. Il est supposé que leur mode de vie différent aux Etats_Units pourrait en être la raison. Voici un jeu de données qui permet d'explorer un peu ceci\ :


```r
pima <- read("PimaIndiansDiabetes2", package = "mlbench")
pima
```

```
# # A tibble: 768 x 9
#    pregnant glucose pressure triceps insulin  mass pedigree   age diabetes
#       <dbl>   <dbl>    <dbl>   <dbl>   <dbl> <dbl>    <dbl> <dbl> <fct>   
#  1        6     148       72      35      NA  33.6    0.627    50 pos     
#  2        1      85       66      29      NA  26.6    0.351    31 neg     
#  3        8     183       64      NA      NA  23.3    0.672    32 pos     
#  4        1      89       66      23      94  28.1    0.167    21 neg     
#  5        0     137       40      35     168  43.1    2.29     33 pos     
#  6        5     116       74      NA      NA  25.6    0.201    30 neg     
#  7        3      78       50      32      88  31      0.248    26 pos     
#  8       10     115       NA      NA      NA  35.3    0.134    29 neg     
#  9        2     197       70      45     543  30.5    0.158    53 pos     
# 10        8     125       96      NA      NA  NA      0.232    54 pos     
# # … with 758 more rows
```
…
<img src="07-acp-afc_files/figure-html/unnamed-chunk-3-1.png" width="672" style="display: block; margin: auto;" />

Moins de 10% des données sont manquantes, et c'est principalement dans les variables `insulin` et `triceps`. Si nous souhaitons un tableau sans variables manquantes, nous pouvons décider d'éliminer des lignes et ou des colonnes (variables), mais ici nous souhaitons garder toutes les variables et réduisons donc uniquement le nombre de lignes avec la fonction `drop_na()`.



```r
pima <- drop_na(pima)
pima
```

```
# # A tibble: 392 x 9
#    pregnant glucose pressure triceps insulin  mass pedigree   age diabetes
#       <dbl>   <dbl>    <dbl>   <dbl>   <dbl> <dbl>    <dbl> <dbl> <fct>   
#  1        1      89       66      23      94  28.1    0.167    21 neg     
#  2        0     137       40      35     168  43.1    2.29     33 pos     
#  3        3      78       50      32      88  31      0.248    26 pos     
#  4        2     197       70      45     543  30.5    0.158    53 pos     
#  5        1     189       60      23     846  30.1    0.398    59 pos     
#  6        5     166       72      19     175  25.8    0.587    51 pos     
#  7        0     118       84      47     230  45.8    0.551    31 pos     
#  8        1     103       30      38      83  43.3    0.183    33 neg     
#  9        1     115       70      30      96  34.6    0.529    32 pos     
# 10        3     126       88      41     235  39.3    0.704    27 neg     
# # … with 382 more rows
```
…
Bien moins lisible, en effet\ !


### Biométrie d'oursin

Analysons à présent un autre jeu de données qui nous montrera l'importance de la transformation (linéarisation), du choix de réduire ou non (argument `scale =`), et l'effet d'un **effet saturant**, et comment s'en débarrasser. Il s'agit de la biométrie effectuée sur deux populations de l'oursin violet *Paracentrotus lividus*, une en élevage et une oautre provenant du milieu naturel. Nous avons abondamment utilisé ce jeu de données en SDD I dans la section visualisation. Nous le connaissons bien, mais reprenons certains éléments essentiels ici...


```r
urchin <- read("urchin_bio", package = "data.io", lang = "FR")
urchin
```

```
# # A tibble: 421 x 19
#    origin diameter1 diameter2 height buoyant_weight weight solid_parts
#    <fct>      <dbl>     <dbl>  <dbl>          <dbl>  <dbl>       <dbl>
#  1 Pêche…       9.9      10.2    5               NA  0.522       0.478
#  2 Pêche…      10.5      10.6    5.7             NA  0.642       0.589
#  3 Pêche…      10.8      10.8    5.2             NA  0.734       0.677
#  4 Pêche…       9.6       9.3    4.6             NA  0.370       0.344
#  5 Pêche…      10.4      10.7    4.8             NA  0.610       0.559
#  6 Pêche…      10.5      11.1    5               NA  0.610       0.551
#  7 Pêche…      11        11      5.2             NA  0.672       0.605
#  8 Pêche…      11.1      11.2    5.7             NA  0.703       0.628
#  9 Pêche…       9.4       9.2    4.6             NA  0.413       0.375
# 10 Pêche…      10.1       9.5    4.7             NA  0.449       0.398
# # … with 411 more rows, and 12 more variables: integuments <dbl>,
# #   dry_integuments <dbl>, digestive_tract <dbl>,
# #   dry_digestive_tract <dbl>, gonads <dbl>, dry_gonads <dbl>,
# #   skeleton <dbl>, lantern <dbl>, test <dbl>, spines <dbl>,
# #   maturity <int>, sex <fct>
```
…
<img src="07-acp-afc_files/figure-html/unnamed-chunk-21-1.png" width="672" style="display: block; margin: auto;" />

Ces valeurs manquantes sont rassemblées essentiellement dans les variables `buoyant_weight`, `dry_integuments`, les mesures relatives au squelette (`skeleton`, `lantern`, `test` et `spines`), et surtout au niveau de `sex` (impossible de déterminer le sexe des individus les plus jeunes). Si nous éliminons purement et simplement les lignes qui ont au moins une valeur manquante, nous perdons tous les individus jeunes, et c'est dommage. Nous allons donc d'abord éliminer les variables `sex`, ainsi que les quatres variables liées au squelette. Dans un second temps, nous appliquerons `drop_na()` sur ce qui reste\ :


```r
urchin %>.%
  select(., -(skeleton:spines), -sex) %>.%
  drop_na(.) -> urchin2
urchin2
```

```
# # A tibble: 319 x 14
#    origin diameter1 diameter2 height buoyant_weight weight solid_parts
#    <fct>      <dbl>     <dbl>  <dbl>          <dbl>  <dbl>       <dbl>
#  1 Pêche…      16.7      16.8    8.4          0.588   2.58        2.04
#  2 Pêche…      19.9      20      9.2          1.10    4.26        3.66
#  3 Pêche…      19.9      19.2    8.5          0.629   2.93        2.43
#  4 Pêche…      19.3      19.8   10.2          0.781   3.71        3.09
#  5 Pêche…      18.8      20      9.3          0.761   3.59        2.99
#  6 Pêche…      21.5      20.9    9.6          1.13    4.98        4.42
#  7 Pêche…      17.4      16.5    7.8          0.477   2.33        1.97
#  8 Pêche…      21        21.2   10.8          1.23    5.4         4.55
#  9 Pêche…      17.8      18.8    8.6          0.548   2.58        2.07
# 10 Pêche…      19.7      19.6    9.7          0.862   3.59        3.08
# # … with 309 more rows, and 7 more variables: integuments <dbl>,
# #   dry_integuments <dbl>, digestive_tract <dbl>,
# #   dry_digestive_tract <dbl>, gonads <dbl>, dry_gonads <dbl>,
# #   maturity <int>
```
…
