7.3 Accès aux bases de données | Science des données biologiques 2
…
7.3.6 Utilisation de dplyr

Les fonctions du package dplyr fonctionnent aussi très bien sur des bases de données. Les commandes sont converties en interne en requêtes SQL. Il suffit d’utiliser collect() à la fin pour exécuter la requête.

dbfile <- "/home/sv/shared/database.sqlite"
my_db <- src_sqlite(dbfile) # Utiliser create = TRUE pour la créer
my_db

# src:  sqlite 3.22.0 [/media/sf_shared/database.sqlite]
# tbls: iris, mtcars

my_table <- tbl(my_db, sql("SELECT * FROM iris"))
(df2 <- collect(my_table))

# # A tibble: 150 x 5
#    Sepal.Length Sepal.Width Petal.Length Petal.Width Species
#           <dbl>       <dbl>        <dbl>       <dbl> <chr>  
#  1          5.1         3.5          1.4         0.2 setosa 
#  2          4.9         3            1.4         0.2 setosa 
#  3          4.7         3.2          1.3         0.2 setosa 
#  4          4.6         3.1          1.5         0.2 setosa 
#  5          5           3.6          1.4         0.2 setosa 
#  6          5.4         3.9          1.7         0.4 setosa 
#  7          4.6         3.4          1.4         0.3 setosa 
#  8          5           3.4          1.5         0.2 setosa 
#  9          4.4         2.9          1.4         0.2 setosa 
# 10          4.9         3.1          1.5         0.1 setosa 
# # … with 140 more rows
…
# Récupérer le résultat
res <- collect(query2)
res

# # A tibble: 113 x 4
#    Petal.Length Sepal.Width Species logPL
#           <dbl>       <dbl> <chr>   <dbl>
#  1          1.6         3.8 setosa  0.204
#  2          1.6         3.5 setosa  0.204
#  3          1.6         3.4 setosa  0.204
#  4          1.6         3.4 setosa  0.204
#  5          1.6         3.2 setosa  0.204
#  6          1.6         3.1 setosa  0.204
#  7          1.6         3   setosa  0.204
#  8          1.7         3.9 setosa  0.230
#  9          1.7         3.8 setosa  0.230
# 10          1.7         3.4 setosa  0.230
# # … with 103 more rows
…
