7.2 Analyse factorielle des correspondances | Science des données biologiques 2
…
D. La science moderne va résoudre nos problèmes relatifs à l’environement sans faire de grands changements à notre mode de vie

Les réponses possibles sont : 1 = tout-à-fait d’accord à 5 = pas du tout d’accord. Le jeu de données wg93 du package ca reprend les réponses données par les allemands de l’ouest à ces questions. De plus, les caractéristiques suivantes des répondants sont enregistrées :

le sexe (1 = homme, 2 = femme),

l’âge (1 = 18-24, 2 = 25-34, 3 = 35-44, 4 = 45-54, 5 = 55-64, 6 = 65+)

le niveau d’éducation (1 = primaire, 2 = second. partim, 3 = secondaire, 4 = univ. partim, 5 = univ. cycle 1, 6 = univ. cycle 2+)

wg <- read("wg93", package = "ca")
wg

# # A tibble: 871 x 7
#    A     B     C     D     sex   age   edu  
#    <fct> <fct> <fct> <fct> <fct> <fct> <fct>
#  1 2     3     4     3     2     2     3    
#  2 3     4     2     3     1     3     4    
#  3 2     3     2     4     2     3     2    
#  4 2     2     2     2     1     2     3    
#  5 3     3     3     3     1     5     2    
#  6 3     4     4     5     1     3     2    
#  7 3     4     2     4     2     5     2    
#  8 3     4     4     2     1     3     3    
#  9 3     2     2     1     1     3     2    
# 10 3     3     2     2     1     3     2    
# # … with 861 more rows
…
wg %>.%
  mutate(.,
    A = recode(A, `1` = "++", `2` = "+", `3` = "0", `4` = "-", `5` = "--"),
    B = recode(B, `1` = "++", `2` = "+", `3` = "0", `4` = "-", `5` = "--"),
    C = recode(C, `1` = "++", `2` = "+", `3` = "0", `4` = "-", `5` = "--"),
    D = recode(D, `1` = "++", `2` = "+", `3` = "0", `4` = "-", `5` = "--"),
    sex = recode(sex, `1` = "H", `2`= "F"),
    age = recode(age, `1` = "18-24", `2` = "25-34", `3` = "35-44",
      `4` = "45-54", `5` = "55-64", `6` = "65+"),
    edu = recode(edu, `1` = "primaire", `2` = "sec. part", `3` = "secondaire",
      `4` = "univ. part", `5` = "univ. cycle 1", `6` = "univ. cycle 2")
  ) -> wg
wg

# # A tibble: 871 x 7
#    A     B     C     D     sex   age   edu       
#    <fct> <fct> <fct> <fct> <fct> <fct> <fct>     
#  1 +     0     -     0     F     25-34 secondaire
#  2 0     -     +     0     H     35-44 univ. part
#  3 +     0     +     -     F     35-44 sec. part 
#  4 +     +     +     +     H     25-34 secondaire
#  5 0     0     0     0     H     55-64 sec. part 
#  6 0     -     -     --    H     35-44 sec. part 
#  7 0     -     +     -     F     55-64 sec. part 
#  8 0     -     -     +     H     35-44 secondaire
#  9 0     +     +     ++    H     35-44 sec. part 
# 10 0     0     +     +     H     35-44 sec. part 
# # … with 861 more rows
…
