7.1 Analyse en composantes principales | Science des données biologiques 2
…
chart.pcomp <- function(data, choices = 1L:2L, name = deparse(substitute(data)),
..., type = NULL, env = parent.frame())
  autoplot.pcomp(data, choices = choices, name = name, ..., type = type, env = env)
class(chart.pcomp) <- c("function", "subsettable_type")

7.1.2 Indiens diabétiques

Les indiens Pimas sont des amérindiens originaires du nord du Mexique qui sont connus pour compter le plus haut pourcentage d’obèses et de diabétiques de toutes les éthnies. Ils ont fait l’objet de plusieurs études scientifiques d’autant plus que les Pimas en Arizona développent principalement cette obésité et ce diabète, alors que les Pimas mexicains les ont plus rarement. Il est supposé que leur mode de vie différent aux Etats_Units pourrait en être la raison. Voici un jeu de données qui permet d’explorer un peu ceci (nous éliminons les lignes qui contiennent des données manquantes dans le tableau initial à l’aide de drop_na() :

read("PimaIndiansDiabetes2", package = "mlbench") %>.%
  drop_na(.) -> pima
pima

# # A tibble: 392 x 9
#    pregnant glucose pressure triceps insulin  mass pedigree   age diabetes
#       <dbl>   <dbl>    <dbl>   <dbl>   <dbl> <dbl>    <dbl> <dbl> <fct>   
#  1        1      89       66      23      94  28.1    0.167    21 neg     
#  2        0     137       40      35     168  43.1    2.29     33 pos     
#  3        3      78       50      32      88  31      0.248    26 pos     
#  4        2     197       70      45     543  30.5    0.158    53 pos     
#  5        1     189       60      23     846  30.1    0.398    59 pos     
#  6        5     166       72      19     175  25.8    0.587    51 pos     
#  7        0     118       84      47     230  45.8    0.551    31 pos     
#  8        1     103       30      38      83  43.3    0.183    33 neg     
#  9        1     115       70      30      96  34.6    0.529    32 pos     
# 10        3     126       88      41     235  39.3    0.704    27 neg     
# # … with 382 more rows
…
