6.3 Cartes auto-adaptatives (SOM) | Science des données biologiques 2
…
Carte SOM obtenue à partir de l’image précédente : les pixels sont automatiquement triés par couleur sur la carte.

Ce qui est évident sur un exemple aussi visuel que celui-ci fonctionne aussi très bien pour ranger les individus dans un tableau multivarié a priori cahotique comme ceux que nous rencontrons régulièrement en statistiques multivariées en biologie.

6.3.1 SOM sur le zooplancton

Reprenons notre exemple du zooplankton.

zoo <- read("zooplankton", package = "data.io")
zoo

# # A tibble: 1,262 x 20
#      ecd  area perimeter feret major minor  mean  mode   min   max std_dev
#    <dbl> <dbl>     <dbl> <dbl> <dbl> <dbl> <dbl> <dbl> <dbl> <dbl>   <dbl>
#  1 0.770 0.465      4.45 1.32  1.16  0.509 0.363 0.036 0.004 0.908   0.231
#  2 0.700 0.385      2.32 0.728 0.713 0.688 0.361 0.492 0.024 0.676   0.183
#  3 0.815 0.521      4.15 1.33  1.11  0.598 0.308 0.032 0.008 0.696   0.204
#  4 0.785 0.484      4.44 1.78  1.56  0.394 0.332 0.036 0.004 0.728   0.218
#  5 0.361 0.103      1.71 0.739 0.694 0.188 0.153 0.016 0.008 0.452   0.110
#  6 0.832 0.544      5.27 1.66  1.36  0.511 0.371 0.02  0.004 0.844   0.268
#  7 1.23  1.20      15.7  3.92  1.37  1.11  0.217 0.012 0.004 0.784   0.214
#  8 0.620 0.302      3.98 1.19  1.04  0.370 0.316 0.012 0.004 0.756   0.246
#  9 1.19  1.12      15.3  3.85  1.34  1.06  0.176 0.012 0.004 0.728   0.172
# 10 1.04  0.856      7.60 1.89  1.66  0.656 0.404 0.044 0.004 0.88    0.264
# # … with 1,252 more rows, and 9 more variables: range <dbl>, size <dbl>,
# #   aspect <dbl>, elongation <dbl>, compactness <dbl>, transparency <dbl>,
# #   circularity <dbl>, density <dbl>, class <fct>
…
