6.2 Positionnement multidimensionnel (MDS) | Science des données biologiques 2
…
Ombre chinoise : un placement astucieux des mains dans le faisceau lumineux permet de projetter l’ombre d’un animal ou d’un objet sur une surface plane. La PCoA fait de même avec vos données.

Partant d’une matrice de distance, élaborée à l’aide de la métrique de votre choix (euclidienne, Manhattan, Bray-Curtis, Canberra, …) la projection est calculée à l’aide de la fonction cmdscale(). Appliqué aux données iris, cela donne :

Considérons un relevé de couverture végétale en 24 stations concernant 44 plantes répertoriées sur le site de l’étude, par exemple, Callvulg est Calluna vulgaris, Empenigr est Empetrum nigrum, etc. Les valeurs sont les couvertures végétales observées pour chaque plante sur le site, expérimées en pourcents. La première colonne nommée rownames contient les identifiants des stations. Nous allons les enlever du tableau après les avoir transférés dans la variable stations.

veg <- read("varespec", package = "vegan")
veg

# # A tibble: 24 x 45
#    rownames Callvulg Empenigr Rhodtome Vaccmyrt Vaccviti Pinusylv Descflex
#    <chr>       <dbl>    <dbl>    <dbl>    <dbl>    <dbl>    <dbl>    <dbl>
#  1 18           0.55    11.1      0        0       17.8      0.07     0   
#  2 15           0.67     0.17     0        0.35    12.1      0.12     0   
#  3 24           0.1      1.55     0        0       13.5      0.25     0   
#  4 27           0       15.1      2.42     5.92    16.0      0        3.7 
#  5 23           0       12.7      0        0       23.7      0.03     0   
#  6 19           0        8.92     0        2.42    10.3      0.12     0.02
#  7 22           4.73     5.12     1.55     6.05    12.4      0.1      0.78
#  8 16           4.47     7.33     0        2.15     4.33     0.1      0   
#  9 28           0        1.63     0.35    18.3      7.13     0.05     0.4 
# 10 13          24.1      1.9      0.07     0.22     5.3      0.12     0   
# # … with 14 more rows, and 37 more variables: Betupube <dbl>,
# #   Vacculig <dbl>, Diphcomp <dbl>, Dicrsp <dbl>, Dicrfusc <dbl>,
# #   Dicrpoly <dbl>, Hylosple <dbl>, Pleuschr <dbl>, Polypili <dbl>,
# #   Polyjuni <dbl>, Polycomm <dbl>, Pohlnuta <dbl>, Ptilcili <dbl>,
# #   Barbhatc <dbl>, Cladarbu <dbl>, Cladrang <dbl>, Cladstel <dbl>,
# #   Cladunci <dbl>, Cladcocc <dbl>, Cladcorn <dbl>, Cladgrac <dbl>,
# #   Cladfimb <dbl>, Cladcris <dbl>, Cladchlo <dbl>, Cladbotr <dbl>,
# #   Cladamau <dbl>, Cladsp <dbl>, Cetreric <dbl>, Cetrisla <dbl>,
# #   Flavniva <dbl>, Nepharct <dbl>, Stersp <dbl>, Peltapht <dbl>,
…
